{
  "aggregations": {
    "access_right": {
      "buckets": [
        {
          "doc_count": 1916489,
          "key": "open"
        },
        {
          "doc_count": 40455,
          "key": "closed"
        },
        {
          "doc_count": 5643,
          "key": "restricted"
        },
        {
          "doc_count": 1416,
          "key": "embargoed"
        }
      ],
      "doc_count_error_upper_bound": 0,
      "sum_other_doc_count": 0
    },
    "file_type": {
      "buckets": [
        {
          "doc_count": 942342,
          "key": "pdf"
        },
        {
          "doc_count": 366795,
          "key": "jpg"
        },
        {
          "doc_count": 275018,
          "key": "png"
        },
        {
          "doc_count": 135959,
          "key": "html"
        },
        {
          "doc_count": 99109,
          "key": "zip"
        },
        {
          "doc_count": 23610,
          "key": "xlsx"
        },
        {
          "doc_count": 20786,
          "key": "txt"
        },
        {
          "doc_count": 17574,
          "key": "xml"
        },
        {
          "doc_count": 16811,
          "key": "docx"
        },
        {
          "doc_count": 16544,
          "key": "csv"
        }
      ],
      "doc_count_error_upper_bound": 0,
      "sum_other_doc_count": 131726
    },
    "keywords": {
      "buckets": [
        {
          "doc_count": 713514,
          "key": "Taxonomy"
        },
        {
          "doc_count": 712333,
          "key": "Biodiversity"
        },
        {
          "doc_count": 418280,
          "key": "Animalia"
        },
        {
          "doc_count": 325960,
          "key": "Arthropoda"
        },
        {
          "doc_count": 270738,
          "key": "Terrestrial"
        },
        {
          "doc_count": 270653,
          "key": "Herbarium"
        },
        {
          "doc_count": 222352,
          "key": "Insecta"
        },
        {
          "doc_count": 64878,
          "key": "Coleoptera"
        },
        {
          "doc_count": 49813,
          "key": "Arachnida"
        },
        {
          "doc_count": 48047,
          "key": "Hymenoptera"
        }
      ],
      "doc_count_error_upper_bound": 0,
      "sum_other_doc_count": 4323391
    },
    "type": {
      "buckets": [
        {
          "doc_count": 1097788,
          "key": "publication",
          "subtype": {
            "buckets": [
              {
                "doc_count": 847204,
                "key": "article"
              },
              {
                "doc_count": 135812,
                "key": "taxonomictreatment"
              },
              {
                "doc_count": 51525,
                "key": "conferencepaper"
              },
              {
                "doc_count": 14545,
                "key": "other"
              },
              {
                "doc_count": 11489,
                "key": "report"
              },
              {
                "doc_count": 7636,
                "key": "book"
              },
              {
                "doc_count": 7106,
                "key": "deliverable"
              },
              {
                "doc_count": 7095,
                "key": "section"
              },
              {
                "doc_count": 4957,
                "key": "thesis"
              },
              {
                "doc_count": 4001,
                "key": "preprint"
              }
            ],
            "doc_count_error_upper_bound": 0,
            "sum_other_doc_count": 6418
          }
        },
        {
          "doc_count": 638564,
          "key": "image",
          "subtype": {
            "buckets": [
              {
                "doc_count": 353682,
                "key": "figure"
              },
              {
                "doc_count": 279411,
                "key": "photo"
              },
              {
                "doc_count": 4337,
                "key": "drawing"
              },
              {
                "doc_count": 827,
                "key": "other"
              },
              {
                "doc_count": 167,
                "key": "plot"
              },
              {
                "doc_count": 140,
                "key": "diagram"
              }
            ],
            "doc_count_error_upper_bound": 0,
            "sum_other_doc_count": 0
          }
        },
        {
          "doc_count": 120156,
          "key": "dataset",
          "subtype": {
            "buckets": [],
            "doc_count_error_upper_bound": 0,
            "sum_other_doc_count": 0
          }
        },
        {
          "doc_count": 59507,
          "key": "software",
          "subtype": {
            "buckets": [],
            "doc_count_error_upper_bound": 0,
            "sum_other_doc_count": 0
          }
        },
        {
          "doc_count": 23191,
          "key": "presentation",
          "subtype": {
            "buckets": [],
            "doc_count_error_upper_bound": 0,
            "sum_other_doc_count": 0
          }
        },
        {
          "doc_count": 9416,
          "key": "poster",
          "subtype": {
            "buckets": [],
            "doc_count_error_upper_bound": 0,
            "sum_other_doc_count": 0
          }
        },
        {
          "doc_count": 8559,
          "key": "other",
          "subtype": {
            "buckets": [],
            "doc_count_error_upper_bound": 0,
            "sum_other_doc_count": 0
          }
        },
        {
          "doc_count": 3937,
          "key": "video",
          "subtype": {
            "buckets": [],
            "doc_count_error_upper_bound": 0,
            "sum_other_doc_count": 0
          }
        },
        {
          "doc_count": 2796,
          "key": "lesson",
          "subtype": {
            "buckets": [],
            "doc_count_error_upper_bound": 0,
            "sum_other_doc_count": 0
          }
        },
        {
          "doc_count": 89,
          "key": "physicalobject",
          "subtype": {
            "buckets": [],
            "doc_count_error_upper_bound": 0,
            "sum_other_doc_count": 0
          }
        }
      ],
      "doc_count_error_upper_bound": 0,
      "sum_other_doc_count": 0
    }
  },
  "hits": {
    "hits": [
      {
        "conceptdoi": "10.5281/zenodo.4691101",
        "conceptrecid": "4691101",
        "created": "2021-08-10T05:42:35.289074+00:00",
        "doi": "10.5281/zenodo.5173799",
        "files": [
          {
            "bucket": "b7172d48-ecc1-4f85-a073-620cbae45947",
            "checksum": "md5:43e15e8115e5610cb029dce137cbea6f",
            "key": "lexibank/utoaztecan-v1.1.zip",
            "links": {
              "self": "https://zenodo.org/api/files/b7172d48-ecc1-4f85-a073-620cbae45947/lexibank/utoaztecan-v1.1.zip"
            },
            "size": 805940,
            "type": "zip"
          }
        ],
        "id": 5173799,
        "links": {
          "badge": "https://zenodo.org/badge/doi/10.5281/zenodo.5173799.svg",
          "bucket": "https://zenodo.org/api/files/b7172d48-ecc1-4f85-a073-620cbae45947",
          "conceptbadge": "https://zenodo.org/badge/doi/10.5281/zenodo.4691101.svg",
          "conceptdoi": "https://doi.org/10.5281/zenodo.4691101",
          "doi": "https://doi.org/10.5281/zenodo.5173799",
          "html": "https://zenodo.org/record/5173799",
          "latest": "https://zenodo.org/api/records/5173799",
          "latest_html": "https://zenodo.org/record/5173799",
          "self": "https://zenodo.org/api/records/5173799"
        },
        "metadata": {
          "access_right": "open",
          "access_right_category": "success",
          "communities": [
            {
              "id": "lexibank"
            }
          ],
          "contributors": [],
          "creators": [
            {
              "name": "Greenhill, Simon J."
            },
            {
              "name": "Hannah J. Haynie"
            },
            {
              "name": "Robert M. Ross"
            },
            {
              "name": "Angela M. Chira"
            },
            {
              "name": "List, Johann-Mattis"
            },
            {
              "name": "Lyle Campbell"
            },
            {
              "name": "Carlos A. Botero"
            },
            {
              "name": "Russell D. Gray"
            }
          ],
          "description": "<p>Cite the source of the dataset as:</p>\n\n<blockquote>\n<p>Greenhill, Simon J., Hannah J. Haynie, Robert M. Ross, Angela M. Chira, List, Johann-Mattis, Lyle Campbell, Carlos A. Botero, and Russell D. Gray (2021): A recent northern origin for the Uto-Aztecan language family. Leipzig: Max Planck Institute for Evolutionary Anthropology.</p>\n</blockquote>",
          "doi": "10.5281/zenodo.5173799",
          "keywords": [
            "cldf:Wordlist",
            "linguistics"
          ],
          "license": {
            "id": "CC-BY-4.0"
          },
          "publication_date": "2021-08-10",
          "related_identifiers": [
            {
              "identifier": "https://github.com/lexibank/utoaztecan/tree/v1.1",
              "relation": "isSupplementTo",
              "scheme": "url"
            },
            {
              "identifier": "10.5281/zenodo.4691101",
              "relation": "isVersionOf",
              "scheme": "doi"
            }
          ],
          "relations": {
            "version": [
              {
                "count": 2,
                "index": 1,
                "is_last": true,
                "last_child": {
                  "pid_type": "recid",
                  "pid_value": "5173799"
                },
                "parent": {
                  "pid_type": "recid",
                  "pid_value": "4691101"
                }
              }
            ]
          },
          "resource_type": {
            "title": "Dataset",
            "type": "dataset"
          },
          "title": "CLDF Dataset accompanying Greenhill et al.'s \"Origin of Uto-Aztecan\" from 2021",
          "version": "v1.1"
        },
        "owners": [
          22704
        ],
        "revision": 3,
        "stats": {
          "downloads": 0.0,
          "unique_downloads": 0.0,
          "unique_views": 2.0,
          "version_downloads": 6.0,
          "version_unique_downloads": 6.0,
          "version_unique_views": 18.0,
          "version_views": 18.0,
          "version_volume": 2255856.0,
          "views": 2.0,
          "volume": 0.0
        },
        "updated": "2021-08-10T13:48:39.606721+00:00"
      }
    ],
    "total": 123
  },
  "links": {
    "next": "https://zenodo.org/api/records/?sort=mostrecent&page=2&keywords=cldf%3AWordlist&size=1",
    "self": "https://zenodo.org/api/records/?sort=mostrecent&page=1&keywords=cldf%3AWordlist&size=1"
  }
}